sv xil_defaultlib "/opt/Xilinx/Vivado/2016.2/data/ip/xpm/xpm_cdc/hdl/xpm_cdc.sv" 
sv xil_defaultlib "/opt/Xilinx/Vivado/2016.2/data/ip/xpm/xpm_memory/hdl/xpm_memory_base.sv" 
sv xil_defaultlib "/opt/Xilinx/Vivado/2016.2/data/ip/xpm/xpm_memory/hdl/xpm_memory_dpdistram.sv" 
sv xil_defaultlib "/opt/Xilinx/Vivado/2016.2/data/ip/xpm/xpm_memory/hdl/xpm_memory_dprom.sv" 
sv xil_defaultlib "/opt/Xilinx/Vivado/2016.2/data/ip/xpm/xpm_memory/hdl/xpm_memory_sdpram.sv" 
sv xil_defaultlib "/opt/Xilinx/Vivado/2016.2/data/ip/xpm/xpm_memory/hdl/xpm_memory_spram.sv" 
sv xil_defaultlib "/opt/Xilinx/Vivado/2016.2/data/ip/xpm/xpm_memory/hdl/xpm_memory_sprom.sv" 
sv xil_defaultlib "/opt/Xilinx/Vivado/2016.2/data/ip/xpm/xpm_memory/hdl/xpm_memory_tdpram.sv" 
verilog fifo_generator_v13_1_1 "../../../ipstatic/fifo_generator_v13_1_1/simulation/fifo_generator_vlog_beh.v" 
verilog fifo_generator_v13_1_1 "../../../ipstatic/fifo_generator_v13_1_1/hdl/fifo_generator_v13_1_rfs.v" 
verilog xil_defaultlib "../../../../RD53_Emulation.srcs/sources_1/ip/l2p_fifo64/sim/l2p_fifo64.v" 

verilog xil_defaultlib "glbl.v"

nosort
