sv xil_defaultlib "/opt/Xilinx/Vivado/2016.2/data/ip/xpm/xpm_cdc/hdl/xpm_cdc.sv" --include "../../../ipstatic/axis_infrastructure_v1_1_0/hdl/verilog"
sv xil_defaultlib "/opt/Xilinx/Vivado/2016.2/data/ip/xpm/xpm_memory/hdl/xpm_memory_base.sv" --include "../../../ipstatic/axis_infrastructure_v1_1_0/hdl/verilog"
sv xil_defaultlib "/opt/Xilinx/Vivado/2016.2/data/ip/xpm/xpm_memory/hdl/xpm_memory_dpdistram.sv" --include "../../../ipstatic/axis_infrastructure_v1_1_0/hdl/verilog"
sv xil_defaultlib "/opt/Xilinx/Vivado/2016.2/data/ip/xpm/xpm_memory/hdl/xpm_memory_dprom.sv" --include "../../../ipstatic/axis_infrastructure_v1_1_0/hdl/verilog"
sv xil_defaultlib "/opt/Xilinx/Vivado/2016.2/data/ip/xpm/xpm_memory/hdl/xpm_memory_sdpram.sv" --include "../../../ipstatic/axis_infrastructure_v1_1_0/hdl/verilog"
sv xil_defaultlib "/opt/Xilinx/Vivado/2016.2/data/ip/xpm/xpm_memory/hdl/xpm_memory_spram.sv" --include "../../../ipstatic/axis_infrastructure_v1_1_0/hdl/verilog"
sv xil_defaultlib "/opt/Xilinx/Vivado/2016.2/data/ip/xpm/xpm_memory/hdl/xpm_memory_sprom.sv" --include "../../../ipstatic/axis_infrastructure_v1_1_0/hdl/verilog"
sv xil_defaultlib "/opt/Xilinx/Vivado/2016.2/data/ip/xpm/xpm_memory/hdl/xpm_memory_tdpram.sv" --include "../../../ipstatic/axis_infrastructure_v1_1_0/hdl/verilog"
verilog axis_infrastructure_v1_1_0 "../../../ipstatic/axis_infrastructure_v1_1_0/hdl/verilog/axis_infrastructure_v1_1_mux_enc.v" --include "../../../ipstatic/axis_infrastructure_v1_1_0/hdl/verilog"
verilog axis_infrastructure_v1_1_0 "../../../ipstatic/axis_infrastructure_v1_1_0/hdl/verilog/axis_infrastructure_v1_1_util_aclken_converter.v" --include "../../../ipstatic/axis_infrastructure_v1_1_0/hdl/verilog"
verilog axis_infrastructure_v1_1_0 "../../../ipstatic/axis_infrastructure_v1_1_0/hdl/verilog/axis_infrastructure_v1_1_util_aclken_converter_wrapper.v" --include "../../../ipstatic/axis_infrastructure_v1_1_0/hdl/verilog"
verilog axis_infrastructure_v1_1_0 "../../../ipstatic/axis_infrastructure_v1_1_0/hdl/verilog/axis_infrastructure_v1_1_util_axis2vector.v" --include "../../../ipstatic/axis_infrastructure_v1_1_0/hdl/verilog"
verilog axis_infrastructure_v1_1_0 "../../../ipstatic/axis_infrastructure_v1_1_0/hdl/verilog/axis_infrastructure_v1_1_util_vector2axis.v" --include "../../../ipstatic/axis_infrastructure_v1_1_0/hdl/verilog"
verilog axis_infrastructure_v1_1_0 "../../../ipstatic/axis_infrastructure_v1_1_0/hdl/verilog/axis_infrastructure_v1_1_clock_synchronizer.v" --include "../../../ipstatic/axis_infrastructure_v1_1_0/hdl/verilog"
verilog axis_infrastructure_v1_1_0 "../../../ipstatic/axis_infrastructure_v1_1_0/hdl/verilog/axis_infrastructure_v1_1_cdc_handshake.v" --include "../../../ipstatic/axis_infrastructure_v1_1_0/hdl/verilog"
verilog fifo_generator_v13_1_1 "../../../ipstatic/fifo_generator_v13_1_1/simulation/fifo_generator_vlog_beh.v" --include "../../../ipstatic/axis_infrastructure_v1_1_0/hdl/verilog"
verilog fifo_generator_v13_1_1 "../../../ipstatic/fifo_generator_v13_1_1/hdl/fifo_generator_v13_1_rfs.v" --include "../../../ipstatic/axis_infrastructure_v1_1_0/hdl/verilog"
verilog axis_data_fifo_v1_1_10 "../../../ipstatic/axis_data_fifo_v1_1_10/hdl/verilog/axis_data_fifo_v1_1_axis_data_fifo.v" --include "../../../ipstatic/axis_infrastructure_v1_1_0/hdl/verilog"
verilog xil_defaultlib "../../../../RD53_Emulation.srcs/sources_1/ip/axis_data_fifo_0/sim/axis_data_fifo_0.v" --include "../../../ipstatic/axis_infrastructure_v1_1_0/hdl/verilog"

verilog xil_defaultlib "glbl.v"

nosort
